// Jest Snapshot v1, https://goo.gl/fbAQLP

exports[`renders correctly 1`] = `
<header
  className="header_f10wo1f1"
>
  <img
    className="picture_f1cdn0kf"
    src="https://dummyurl/"
  />
  <span>
     
    Dummy Name
     
  </span>
</header>
`;
