// Jest Snapshot v1, https://goo.gl/fbAQLP

exports[`renders correctly - desktop 1`] = `
<LayoutDesktop
  footer={
    <div>
       footer 
    </div>
  }
  header={
    <div>
       header 
    </div>
  }
  isMobileDevice={false}
  navigation={
    <div>
       navigation 
    </div>
  }
>
   
  <div>
     Content 
  </div>
   
</LayoutDesktop>
`;

exports[`renders correctly - mobile 1`] = `
<LayoutMobile
  footer={
    <div>
       footer 
    </div>
  }
  header={
    <div>
       header 
    </div>
  }
  isMobileDevice={true}
  navigation={
    <div>
       navigation 
    </div>
  }
>
   
  <div>
     Content 
  </div>
   
</LayoutMobile>
`;
